%!PS-Adobe-3.0
%%Creator: cairo 1.16.0 (https://cairographics.org)
%%CreationDate: Sat Feb  9 13:18:52 2019
%%Pages: 1
%%DocumentData: Clean7Bit
%%LanguageLevel: 2
%%DocumentMedia: 55x40mm 156 114 0 () ()
%%BoundingBox: 0 0 156 114
%%EndComments
%%BeginProlog
/languagelevel where
{ pop languagelevel } { 1 } ifelse
2 lt { /Helvetica findfont 12 scalefont setfont 50 500 moveto
  (This print job requires a PostScript Language Level 2 printer.) show
  showpage quit } if
/q { gsave } bind def
/Q { grestore } bind def
/cm { 6 array astore concat } bind def
/w { setlinewidth } bind def
/J { setlinecap } bind def
/j { setlinejoin } bind def
/M { setmiterlimit } bind def
/d { setdash } bind def
/m { moveto } bind def
/l { lineto } bind def
/c { curveto } bind def
/h { closepath } bind def
/re { exch dup neg 3 1 roll 5 3 roll moveto 0 rlineto
      0 exch rlineto 0 rlineto closepath } bind def
/S { stroke } bind def
/f { fill } bind def
/f* { eofill } bind def
/n { newpath } bind def
/W { clip } bind def
/W* { eoclip } bind def
/BT { } bind def
/ET { } bind def
/BDC { mark 3 1 roll /BDC pdfmark } bind def
/EMC { mark /EMC pdfmark } bind def
/cairo_store_point { /cairo_point_y exch def /cairo_point_x exch def } def
/Tj { show currentpoint cairo_store_point } bind def
/TJ {
  {
    dup
    type /stringtype eq
    { show } { -0.001 mul 0 cairo_font_matrix dtransform rmoveto } ifelse
  } forall
  currentpoint cairo_store_point
} bind def
/cairo_selectfont { cairo_font_matrix aload pop pop pop 0 0 6 array astore
    cairo_font exch selectfont cairo_point_x cairo_point_y moveto } bind def
/Tf { pop /cairo_font exch def /cairo_font_matrix where
      { pop cairo_selectfont } if } bind def
/Td { matrix translate cairo_font_matrix matrix concatmatrix dup
      /cairo_font_matrix exch def dup 4 get exch 5 get cairo_store_point
      /cairo_font where { pop cairo_selectfont } if } bind def
/Tm { 2 copy 8 2 roll 6 array astore /cairo_font_matrix exch def
      cairo_store_point /cairo_font where { pop cairo_selectfont } if } bind def
/g { setgray } bind def
/rg { setrgbcolor } bind def
/d1 { setcachedevice } bind def
/cairo_data_source {
  CairoDataIndex CairoData length lt
    { CairoData CairoDataIndex get /CairoDataIndex CairoDataIndex 1 add def }
    { () } ifelse
} def
/cairo_flush_ascii85_file { cairo_ascii85_file status { cairo_ascii85_file flushfile } if } def
/cairo_image { image cairo_flush_ascii85_file } def
/cairo_imagemask { imagemask cairo_flush_ascii85_file } def
/cairo_set_page_size {
  % Change paper size, but only if different from previous paper size otherwise
  % duplex fails. PLRM specifies a tolerance of 5 pts when matching paper size
  % so we use the same when checking if the size changes.
  /setpagedevice where {
    pop currentpagedevice
    /PageSize known {
      2 copy
      currentpagedevice /PageSize get aload pop
      exch 4 1 roll
      sub abs 5 gt
      3 1 roll
      sub abs 5 gt
      or
    } {
      true
    } ifelse
    {
      2 array astore
      2 dict begin
        /PageSize exch def
        /ImagingBBox null def
      currentdict end
      setpagedevice
    } {
      pop pop
    } ifelse
  } {
    pop
  } ifelse
} def
%%EndProlog
%%BeginSetup
%%EndSetup
%%Page: 1 1
%%BeginPageSetup
%%PageMedia: 55x40mm
%%PageBoundingBox: 0 0 156 114
156 114 cairo_set_page_size
%%EndPageSetup
q 0 0 156 114 rectclip
1 0 0 -1 0 114 cm q
0.137255 0.121569 0.12549 rg
0.57875 w
0 J
0 j
[] 0.0 d
10 M q 1 0 0 -1 0 0 cm
112.566 -36.031 m 109.473 -35.926 l 112.582 -34.398 m 109.488 -34.445 l
 112.52 -32.766 m 109.434 -32.969 l 112.383 -31.156 m 109.309 -31.473 l 
112.172 -29.539 m 109.117 -30.008 l 111.883 -27.934 m 108.855 -28.551 l 
111.523 -26.34 m 108.527 -27.109 l 111.086 -24.77 m 108.129 -25.684 l 110.578
 -23.238 m 107.66 -24.258 l 109.996 -21.715 m 107.129 -22.875 l 109.344 
-20.223 m 106.535 -21.516 l 108.625 -18.758 m 105.879 -20.188 l 107.832 
-17.332 m 105.16 -18.891 l 106.98 -15.945 m 104.383 -17.629 l 106.062 -14.598
 m 103.551 -16.402 l 105.082 -13.297 m 102.656 -15.219 l 104.043 -12.043
 m 101.711 -14.074 l 102.949 -10.84 m 100.715 -12.977 l 101.797 -9.684 m
 99.668 -11.926 l 100.594 -8.586 m 98.574 -10.926 l 99.355 -7.555 m 97.422
 -9.965 l 98.059 -6.57 m 96.238 -9.07 l 96.715 -5.648 m 95.016 -8.234 l 
95.328 -4.793 m 93.754 -7.453 l 93.902 -4 m 92.461 -6.734 l 92.441 -3.273
 m 91.133 -6.074 l 90.949 -2.617 m 89.777 -5.48 l 89.426 -2.035 m 88.395
 -4.949 l 87.875 -1.52 m 86.992 -4.484 l 86.32 -1.086 m 85.547 -4.078 l 
84.73 -0.719 m 84.105 -3.75 l 83.125 -0.43 m 82.652 -3.484 l 81.523 -0.215
 m 81.164 -3.285 l 79.898 -0.07 m 79.691 -3.16 l 78.266 -0.004 m 78.215 
-3.098 l 76.648 -0.012 m 76.719 -3.105 l 75.02 -0.098 m 75.242 -3.18 l 73.391
 -0.254 m 73.773 -3.324 l 71.777 -0.492 m 72.309 -3.535 l 70.191 -0.797 
m 70.84 -3.82 l 68.605 -1.184 m 69.402 -4.172 l 67.039 -1.645 m 67.98 -4.59
 l 65.496 -2.176 m 66.582 -5.07 l 63.98 -2.781 m 65.207 -5.621 l 62.512 
-3.445 m 63.84 -6.238 l 61.059 -4.188 m 62.52 -6.914 l 59.645 -4.996 m 61.234
 -7.648 l 58.27 -5.871 m 59.984 -8.445 l 56.934 -6.809 m 58.773 -9.297 l
 55.645 -7.805 m 57.598 -10.203 l 54.406 -8.863 m 56.469 -11.164 l 53.215
 -9.973 m 55.387 -12.176 l 52.09 -11.129 m 54.34 -13.25 l 51.004 -12.348
 m 53.355 -14.355 l 49.98 -13.613 m 52.422 -15.508 l 49.016 -14.926 m 51.547
 -16.703 l 48.109 -16.285 m 50.727 -17.938 l 47.27 -17.684 m 49.965 -19.207
 l 46.5 -19.121 m 49.262 -20.508 l 45.801 -20.574 m 48.613 -21.863 l 45.164
 -22.078 m 48.039 -23.227 l 44.602 -23.609 m 47.527 -24.613 l 44.109 -25.168
 m 47.082 -26.023 l 43.691 -26.746 m 46.703 -27.453 l 43.352 -28.324 m 46.387
 -28.918 l 43.082 -29.938 m 46.145 -30.375 l 42.891 -31.559 m 45.969 -31.844
 l 42.773 -33.168 m 45.859 -33.336 l 42.727 -34.805 m 45.82 -34.812 l 42.758
 -36.438 m 45.848 -36.289 l 42.863 -38.047 m 45.945 -37.785 l 43.047 -39.672
 m 46.109 -39.254 l 43.305 -41.285 m 46.344 -40.715 l 43.633 -42.863 m 46.648
 -42.18 l 44.043 -44.445 m 47.02 -43.613 l 44.523 -46.004 m 47.457 -45.027
 l 45.078 -47.539 m 47.961 -46.418 l 45.703 -49.047 m 48.527 -47.785 l 46.398
 -50.523 m 49.156 -49.125 l 47.16 -51.961 m 49.852 -50.438 l 47.98 -53.348
 m 50.613 -51.727 l 48.875 -54.715 m 51.426 -52.969 l 49.832 -56.035 m 52.297
 -54.168 l 50.848 -57.309 m 53.219 -55.324 l 51.918 -58.535 m 54.195 -56.441
 l 53.051 -59.711 m 55.223 -57.508 l 54.23 -60.832 m 56.301 -58.531 l 55.465
 -61.898 m 57.418 -59.5 l 56.734 -62.891 m 58.598 -60.426 l 58.062 -63.84
 m 59.805 -61.285 l 59.43 -64.723 m 61.051 -62.09 l 60.844 -65.543 m 62.332
 -62.832 l 62.289 -66.293 m 63.645 -63.516 l 63.77 -66.98 m 64.988 -64.137
 l 65.266 -67.586 m 66.375 -64.699 l 66.805 -68.129 m 67.773 -65.191 l 68.371
 -68.598 m 69.188 -65.613 l 69.957 -68.992 m 70.625 -65.973 l 71.539 -69.312
 m 72.094 -66.266 l 73.156 -69.559 m 73.555 -66.488 l 74.781 -69.727 m 75.023
 -66.645 l 76.391 -69.824 m 76.516 -66.734 l 78.027 -69.848 m 77.996 -66.754
 l 79.656 -69.793 m 79.473 -66.707 l 81.27 -69.664 m 80.965 -66.586 l 82.887
 -69.461 m 82.434 -66.402 l 84.496 -69.18 m 83.887 -66.145 l 86.09 -68.82
 m 85.332 -65.824 l 87.648 -68.398 m 86.777 -65.43 l 89.199 -67.895 m 88.188
 -64.973 l 90.727 -67.316 m 89.57 -64.449 l 92.223 -66.672 m 90.93 -63.863
 l 93.688 -65.957 m 92.262 -63.211 l 95.121 -65.172 m 93.562 -62.5 l 96.512
 -64.324 m 94.824 -61.73 l 97.848 -63.422 m 96.07 -60.891 l 99.156 -62.449
 m 97.258 -60.004 l 100.414 -61.414 m 98.406 -59.066 l 101.625 -60.324 m
 99.504 -58.07 l 102.785 -59.18 m 100.559 -57.031 l 103.891 -57.98 m 101.562
 -55.941 l 104.938 -56.73 m 102.52 -54.809 l 105.93 -55.438 m 103.418 -53.629
 l 106.844 -54.113 m 104.273 -52.395 l 107.711 -52.727 m 105.059 -51.141
 l 108.512 -51.309 m 105.781 -49.848 l 109.242 -49.848 m 106.445 -48.527
 l 109.906 -48.355 m 107.047 -47.176 l 110.5 -46.836 m 107.586 -45.797 l
 111.012 -45.305 m 108.062 -44.375 l 111.461 -43.734 m 108.469 -42.953 l
 111.832 -42.145 m 108.805 -41.516 l 112.133 -40.539 m 109.074 -40.062 l
 112.352 -38.938 m 109.281 -38.578 l 112.5 -37.312 m 109.414 -37.105 l S Q
0.32875 w
1 J
1 j
4 M q 1 0 0 -1 0 0 cm
103.02 -25.262 m 103.668 -26.887 104.082 -29.141 104.441 -32.227 c 105.129
 -38.156 103.578 -43.477 103.094 -45.441 c 102.613 -47.406 103.395 -50.203
 104.277 -50.422 c 104.277 -50.422 100.898 -50.793 99.449 -50.738 c 98.836
 -50.715 98.766 -50.723 98.09 -50.691 c 95.734 -50.59 93.309 -50.461 93.164
 -50.348 c 60.52 -26.508 m 60.52 -26.508 58.031 -26.898 55.367 -26.742 c
 54.68 -26.703 53.98 -26.629 53.309 -26.5 c 52.934 -26.43 52.57 -26.34 52.219
 -26.234 c 52.035 -26.176 51.852 -26.117 51.676 -26.047 c 51.676 -26.047
 50.559 -26.453 50.211 -29.293 c 50.211 -29.293 50.07 -32.098 49.707 -33.215
 c 49.02 -34.684 47.516 -36.215 47.516 -36.215 c 47.516 -36.215 47.109 -36.672
 47.609 -37.117 c 48.695 -37.871 l 50.609 -38.664 m 50.562 -38.688 48.938
 -38.305 48.883 -38.09 c 48.883 -38.09 48.824 -37.961 48.914 -37.883 c 49.004
 -37.805 49.273 -37.5 49.367 -37.336 c 49.406 -37.27 49.422 -37.238 49.586
 -36.883 c 49.82 -36.375 50.211 -35.512 50.211 -35.512 c 50.547 -34.633 
50.492 -34.48 50.492 -34.48 c 50.867 -29.688 l 50.922 -27.516 52.199 -26.293
 52.199 -26.293 c 77.258 -17.484 m 77.258 -17.484 77.117 -17.254 77.012 
-17.066 c 76.945 -16.953 76.891 -16.852 76.879 -16.828 c 76.852 -16.754 
76.805 -16.645 76.906 -16.504 c 77.008 -16.363 77.254 -16.473 77.285 -16.496
 c 77.312 -16.52 77.457 -16.699 77.656 -16.855 c 77.855 -17.016 77.824 -16.867
 77.996 -17.613 c 78.031 -17.766 78.043 -17.891 78.027 -17.992 c 77.973 
-18.379 77.516 -18.305 77.027 -18.633 c 76.391 -19.055 75.691 -18.602 75.691
 -18.602 c 75.691 -18.602 74.676 -17.645 74.609 -17.547 c 74.547 -17.453
 74.438 -17.461 74.348 -17.562 c 74.258 -17.664 74.312 -17.676 73.918 -17.684
 c 73.523 -17.688 73.344 -17.457 73.289 -17.344 c 73.234 -17.234 73.789 
-17.004 73.789 -17.004 c 73.789 -17.004 74.395 -16.648 75.008 -16.598 c 
75.109 -16.59 75.203 -16.578 75.289 -16.57 c 75.73 -16.527 76.008 -16.5 
76.418 -16.75 c 76.984 -17.09 l 84.93 -39.004 m 84.93 -39.004 84.891 -42.168
 84.906 -42.414 c 84.918 -42.664 84.992 -43.703 84.695 -44.121 c 84.395 
-44.543 84.078 -45.285 84.113 -45.586 c 84.148 -45.891 84.148 -46.422 84.094
 -46.578 c 84.035 -46.734 83.723 -47.703 83.723 -47.703 c 83.723 -47.703
 83.594 -48.512 84.34 -48.605 c 85.082 -48.699 86.105 -48.711 86.504 -48.512
 c 86.898 -48.309 87.207 -47.914 87.098 -47.652 c 86.984 -47.391 86.691 
-47.215 86.5 -46.961 c 86.305 -46.711 86.062 -46.234 86.145 -45.934 c 86.145
 -45.934 86.266 -45.527 86.262 -45.348 c 86.254 -45.176 86.215 -44.469 86.391
 -44.223 c 86.566 -43.977 87.832 -42.043 87.832 -42.043 c 87.832 -42.043
 88.445 -41.133 88.648 -38.512 c 85.031 -38.926 m 86.453 -38.609 87.703 
-38.445 88.637 -38.359 c 89.738 -38.262 90.406 -38.27 90.406 -38.27 c 75.402
 -40.957 m 75.305 -42.414 75.195 -43.469 75.195 -43.469 c 74.973 -45.523
 73.906 -48.191 73.906 -48.191 c 73.906 -48.191 75.016 -48.152 76.047 -47.812
 c 77.078 -47.469 77.73 -46.668 78.707 -47.23 c 70.234 -45.145 m 70.234 
-45.145 72.996 -48.074 73.898 -48.18 c 101.008 -50.68 m 101.008 -50.68 98.039
 -50.109 97.918 -45.355 c 79.605 -15.465 m 80.098 -17.359 l 69.777 -22.559
 m 70.105 -22.516 l 70.105 -22.516 70.922 -22.641 71.023 -22.648 c 71.125
 -22.652 71.863 -22.789 71.863 -22.789 c 71.938 -22.996 71.5 -23.145 71.5
 -23.145 c 70.707 -23.273 l 70.953 -23.68 l 71.199 -24.078 70.656 -24.398
 70.656 -24.398 c 70.812 -25.16 70.328 -25.391 70.328 -25.391 c 69.582 -25.891
 68.863 -25.457 68.34 -25.156 c 68.207 -25.082 68.09 -25.016 67.984 -24.973
 c 67.457 -24.766 67.602 -24.273 67.59 -23.785 c 67.578 -23.297 67.781 -22.871
 67.918 -22.688 c 68.055 -22.5 68.699 -22.273 68.699 -22.273 c 69.242 -22.414
 l 69.777 -22.559 l 69.793 -22.562 l 69.793 -22.562 70.039 -22.949 69.926
 -23.023 c 69.809 -23.102 69.387 -23.289 69.207 -23.191 c 69.027 -23.098
 l 76.418 -35.621 m 76.418 -35.621 75.852 -35.473 75.719 -35.242 c 84.797
 -15.457 m 84.797 -15.457 85.285 -15.746 85.789 -15.758 c 82.754 -14.598
 m 82.754 -14.598 83.242 -14.891 83.746 -14.898 c 71.516 -16.324 m 72.348
 -16.883 l 98.449 -28.926 m 90.664 -26.84 95.746 -21.715 96.547 -20.965 
c 97.406 -29.484 m 96.172 -34.324 l 85.602 -30.523 m 86.965 -30.242 l 86.195
 -30.449 m 86.352 -30.621 l 85.125 -15.617 m 85.07 -15.848 l 83.199 -14.91
 m 83.176 -15.062 l 71.871 -16.656 m 71.742 -16.848 l 76.07 -35.543 m 75.891
 -35.695 l 76.258 -21.988 m 76.32 -22.082 l 75.676 -22.289 m 75.676 -22.289
 76.254 -21.512 76.531 -21.734 c 77.742 -23.676 m 77.742 -23.676 78.27 -23.562
 78.562 -23.359 c 83.48 -16.242 m 83.48 -16.242 83.457 -16.332 83.793 -16.352
 c 83.148 -16.691 m 83.148 -16.691 83.363 -16.871 83.668 -16.891 c 79.367
 -40.859 m 79.367 -40.859 79.332 -41.156 79.281 -41.465 c 79.238 -41.734
 79.18 -42.012 79.129 -42.094 c 79.016 -42.27 78.82 -42.891 78.895 -42.988
 c 78.895 -42.988 79.086 -43.594 79.398 -43.16 c 79.715 -42.723 l 80.047
 -42.188 l 79.223 -39.875 m 79.203 -40.062 79.043 -40.738 79.453 -40.801
 c 79.453 -40.801 79.84 -40.809 79.859 -40.426 c 79.887 -40.047 80.066 -39.863
 80.113 -39.703 c 81.211 -37.352 m 81.211 -37.352 80.676 -36.895 79.98 -37.535
 c 79.496 -37.98 79.395 -38.066 79.379 -38.082 c 79.375 -38.082 79.375 -38.082
 79.379 -38.082 c 79.383 -38.078 l 79.383 -38.078 m 79.379 -38.078 79.379
 -38.078 79.379 -38.082 c 79.379 -38.082 m 78.902 -38.727 78.934 -38.668
 78.867 -38.836 c 78.816 -38.984 78.594 -39.93 78.598 -40.066 c 78.598 -40.203
 78.566 -40.492 78.496 -40.547 c 78.426 -40.598 78.023 -40.871 77.98 -40.812
 c 77.938 -40.75 77.594 -40.25 77.438 -40.219 c 77.277 -40.188 77.031 -40.164
 77.133 -40.383 c 77.234 -40.605 76.512 -40.492 77.012 -40.922 c 77.504 
-41.348 l 77.504 -41.348 77.957 -41.738 78.238 -41.797 c 78.52 -41.863 78.988
 -41.828 79.215 -41.461 c 80.773 -34.477 m 80.773 -34.477 78.016 -35.586
 79.141 -38.145 c 79.48 -35.348 m 79.48 -35.348 79.34 -33.648 79.383 -32.977
 c 79.402 -32.609 79.797 -30.766 80.148 -29.176 c 86.852 -31.852 m 87.184
 -31.648 l 94.469 -48.762 m 94.469 -48.762 95.887 -50.363 97.031 -50.629
 c 91.898 -25.148 m 91.902 -25.023 92.953 -21.762 94.98 -20.926 c 95.723
 -20.496 96.59 -20.859 96.59 -20.859 c 97.016 -21.043 98.246 -20.57 99.641
 -21.645 c 100.762 -21.293 l 102.684 -20.988 103.633 -22.648 103.633 -23.676
 c 103.633 -24.699 102.234 -26.008 102.234 -26.008 c 100.801 -27.176 l 100.406
 -27.879 98.922 -28.641 98.469 -28.953 c 97.785 -29.422 97.059 -29.504 96.348
 -29.352 c 94.109 -28.891 92.039 -26.168 92.039 -26.168 c 86.402 -23.289
 m 86.402 -23.289 86.938 -22.598 87.762 -22.238 c 87.957 -22.148 91.867 
-20.102 95.395 -20.738 c 99.105 -38.336 m 99.105 -38.336 97.82 -38.172 96.875
 -38.816 c 96.875 -38.82 l 96.68 -38.953 96.496 -39.121 96.344 -39.336 c
 95.766 -40.148 93.379 -42.125 91.801 -43.398 c 91.273 -43.82 90.836 -44.168
 90.586 -44.363 c 90.453 -44.469 89.988 -45.168 89.988 -45.168 c 89.988 
-45.168 90.535 -36.328 96.336 -29.406 c 91.859 -43.48 m 91.859 -43.48 91.547
 -46.562 91.164 -47.477 c 90.781 -48.387 90.512 -49.102 90.516 -49.461 c
 90.52 -49.812 90.262 -50.754 90.145 -51 c 90.07 -51.16 89.926 -51.43 89.848
 -51.727 c 89.801 -51.895 89.777 -52.07 89.793 -52.242 c 89.84 -52.723 89.867
 -53.129 90.219 -53.176 c 90.57 -53.223 91.105 -53.102 91.105 -53.102 c 
91.105 -53.102 91.602 -53.281 91.852 -53.297 c 92.102 -53.312 92.402 -53.359
 92.586 -53.242 c 92.77 -53.125 93.129 -53 93.289 -52.879 c 93.445 -52.762
 93.902 -52.363 93.891 -52.059 c 93.887 -51.754 93.141 -50.703 93.141 -50.703
 c 93.141 -50.703 93.105 -50.574 93.059 -50.379 c 92.953 -49.898 92.801 
-49.012 93.047 -48.523 c 93.391 -47.836 97.16 -42.586 96.906 -38.859 c 91.027
 -29.93 m 90.984 -30.227 90.531 -31.914 90.484 -32.27 c 90.438 -32.617 90.395
 -32.973 90.566 -33.406 c 90.742 -33.848 90.98 -34.949 90.953 -35.426 c 
90.922 -35.902 90.699 -37.18 90.527 -37.898 c 90.496 -38.031 90.469 -38.145
 90.449 -38.234 c 90.359 -38.621 l 89.723 -39.984 l 89.723 -39.984 88.672
 -42.02 88.492 -42.488 c 88.312 -42.957 87.457 -44.547 88.336 -46.793 c 
88.684 -48.074 l 89.277 -49.926 89.488 -50.09 90.16 -50.199 c 82.543 -27.66
 m 82.543 -27.66 82.266 -27.461 82.344 -27.18 c 82.422 -26.895 82.125 -26.363
 82.359 -26.234 c 82.516 -26.148 82.535 -25.734 82.715 -25.43 c 82.805 -25.273
 82.938 -25.148 83.145 -25.109 c 83.77 -24.984 83.516 -24.395 83.977 -24.254
 c 84.438 -24.117 84.848 -23.773 85.012 -23.785 c 85.176 -23.797 85.766 
-23.547 85.934 -23.512 c 86.008 -23.496 86.207 -23.465 86.418 -23.445 c 
86.668 -23.418 86.926 -23.402 87.004 -23.453 c 87.082 -23.504 87.391 -23.648
 87.672 -23.758 c 87.883 -23.84 88.078 -23.906 88.168 -23.91 c 88.371 -23.926
 89.152 -24.238 89.297 -24.246 c 89.441 -24.258 89.91 -24.285 89.859 -24.469
 c 89.805 -24.648 89.695 -24.805 89.793 -24.852 c 89.895 -24.898 90.191 
-25.062 90.164 -25.16 c 90.141 -25.266 89.98 -25.48 90.016 -25.602 c 90.051
 -25.73 90.352 -26.156 90.406 -26.305 c 90.457 -26.453 90.484 -26.68 90.379
 -26.773 c 90.266 -26.871 90.16 -26.949 90.238 -27.031 c 90.312 -27.121 
90.262 -27.324 90.176 -27.402 c 90.09 -27.477 89.973 -27.695 89.887 -27.797
 c 89.797 -27.891 89.547 -28.309 89.418 -28.402 c 89.289 -28.496 88.922 
-28.457 88.871 -28.617 c 88.82 -28.777 88.316 -28.93 88.195 -28.926 c 88.074
 -28.918 87.43 -29.332 87.324 -29.078 c 87.215 -28.824 87.219 -28.395 87.27
 -28.23 c 87.324 -28.074 87.516 -27.941 87.562 -27.816 c 87.609 -27.699 
87.602 -27.516 87.543 -27.449 c 87.488 -27.383 87.172 -27.117 87.434 -26.848
 c 87.699 -26.574 88.207 -25.621 88.305 -25.359 c 88.402 -25.098 88.316 
-24.828 88.262 -24.762 c 88.203 -24.695 87.547 -24.328 87.445 -24.281 c 
87.344 -24.234 86.516 -24.059 86.328 -24.07 c 86.145 -24.078 85.613 -24.027
 85.402 -24.16 c 85.188 -24.289 84.664 -24.484 84.555 -24.559 c 84.449 -24.637
 84.035 -25.023 84.035 -25.023 c 83.453 -25.523 l 83.453 -25.523 82.75 -26.195
 82.68 -27.668 c 82.664 -27.992 82.68 -28.359 82.742 -28.762 c 82.742 -28.762
 82.828 -29.418 83.234 -29.914 c 83.352 -30.055 84.207 -30.715 84.207 -30.715
 c 84.207 -30.715 84.551 -30.781 84.633 -30.785 c 84.715 -30.793 84.953 
-30.887 85.066 -31.117 c 85.172 -31.352 85.43 -32.273 85.953 -32.117 c 86.32
 -31.77 l 86.32 -31.77 86.859 -31.984 86.961 -32.031 c 87.051 -32.078 87.91
 -32.504 88.93 -31.043 c 89.035 -30.895 89.141 -30.723 89.25 -30.527 c 89.25
 -30.527 89.602 -29.629 89.98 -28.91 c 90.07 -28.867 90.395 -28.664 90.5
 -28.625 c 91.609 -28.219 92.023 -26.691 92.023 -26.691 c 92.023 -26.691
 92.031 -26.477 92.016 -26.172 c 78.887 -55.551 m 78.883 -56.852 l 73.871
 -53.902 m 73.871 -55.219 l 78.953 -56.934 l 88.258 -54.199 l 88.258 -52.887
 l 73.871 -53.902 m 78.887 -55.551 l 88.258 -52.887 l 82.914 -51.789 l 79.504
 -52.586 l 79.164 -52.664 l 73.871 -53.902 l 83.145 -29.961 m 83.145 -29.961
 82.98 -30.457 82.805 -30.582 c 82.629 -30.703 81.789 -31.797 81.949 -32.516
 c 82.109 -33.23 82.473 -34.465 82.473 -34.465 c 82.816 -34.422 l 86.031
 -34.035 l 86.031 -34.035 86.25 -33.984 86.52 -33.879 c 86.828 -33.766 87.207
 -33.586 87.418 -33.344 c 87.812 -32.898 88.934 -31.051 88.934 -31.051 c
 79.496 -50.305 m 79.164 -52.664 l 79.164 -52.664 m 78.848 -54.34 l 79.504
 -52.586 l 80.719 -49.504 l 82.211 -53.562 l 81.355 -47.848 l 81.297 -47.238
 l 81.297 -47.238 80.719 -47.285 80.422 -47.75 c 80.125 -48.211 79.848 -49.211
 79.758 -49.613 c 79.68 -49.961 79.488 -50.285 79.477 -50.305 c 79.113 -50.316
 79.148 -49.805 79.148 -49.805 c 79.016 -47.633 l 78.898 -47.539 78.809 
-47.438 78.746 -47.328 c 78.523 -46.93 78.605 -46.43 78.613 -46.035 c 78.617
 -45.535 79.059 -44.965 79.387 -44.246 c 79.535 -43.922 79.812 -43.047 80.07
 -42.195 c 80.375 -41.176 80.656 -40.18 80.656 -40.18 c 80.805 -38.941 81.016
 -38.031 81.242 -37.363 c 81.727 -35.938 82.27 -35.602 82.387 -35.492 c 
82.562 -35.336 82.828 -34.52 82.828 -34.52 c 81.426 -47.84 m 81.703 -47.473
 82.004 -46.852 81.812 -46.031 c 81.488 -44.668 81.543 -44.371 81.668 -43.973
 c 81.746 -43.719 83.453 -41.691 84.609 -39.566 c 84.734 -39.344 84.852 
-39.117 84.961 -38.891 c 85.434 -37.91 85.738 -36.945 85.668 -36.168 c 86.699
 -33.965 l 86.707 -33.945 l 82.297 -26.652 m 80.141 -25.621 l 86.016 -19.16
 m 86.016 -19.16 85.637 -20.688 87.734 -22.176 c 92.41 -20.66 m 92.41 -20.66
 92.125 -20.125 91.305 -19.535 c 90.906 -19.254 90.434 -18.969 89.906 -18.758
 c 87.184 -14.773 m 87.184 -14.773 89.41 -15.562 90.816 -17.898 c 90.816
 -17.898 91.336 -18.805 91.34 -19.262 c 91.34 -19.414 91.34 -19.473 91.34
 -19.484 c 91.34 -19.484 m 91.34 -19.469 91.336 -19.328 91.336 -19.328 c
 81.988 -15.84 m 81.988 -15.84 82.391 -17.262 83.137 -17.457 c 83.137 -17.457
 84.297 -17.492 85.25 -16.773 c 85.539 -19.344 m 85.539 -19.344 85.367 -20.133
 85.25 -20.09 c 85.137 -20.051 84.809 -19.5 84.809 -19.5 c 85.156 -18.285
 l 85.312 -16.781 l 85.316 -16.711 l 86.492 -14.797 l 86.516 -14.664 86.375
 -13.965 86.23 -13.84 c 86.086 -13.715 85.676 -13.25 85.652 -13.082 c 85.633
 -12.91 85.496 -12.348 85.496 -12.348 c 85.496 -12.348 84.629 -13.055 84.438
 -13.16 c 84.246 -13.27 83.613 -13.145 83.445 -13.137 c 83.281 -13.125 82.887
 -13.234 82.789 -13.43 c 82.695 -13.625 82.355 -14.23 82.262 -14.359 c 82.172
 -14.488 82.066 -15.121 82.066 -15.426 c 82.062 -15.582 81.992 -15.711 81.914
 -15.828 c 81.84 -15.938 81.758 -16.043 81.719 -16.145 c 81.641 -16.355 
81.742 -16.566 81.789 -16.906 c 81.836 -17.246 81.77 -17.812 81.727 -17.98
 c 81.684 -18.145 81.395 -18.145 81.328 -18.141 c 81.262 -18.137 80.895 
-18.352 80.895 -18.352 c 80.895 -18.352 80.973 -17.883 81 -17.766 c 81.023
 -17.648 80.711 -16.977 80.641 -16.754 c 80.57 -16.527 80.348 -14.887 80.352
 -14.527 c 80.355 -14.18 80.734 -13.16 80.766 -12.973 c 80.793 -12.789 81.059
 -12.016 81.246 -11.691 c 81.309 -11.578 81.434 -11.418 81.582 -11.254 c
 81.582 -11.25 l 81.859 -10.934 82.211 -10.586 82.328 -10.492 c 82.504 -10.352
 83.629 -10.082 83.629 -10.082 c 83.629 -10.082 84.969 -9.945 85.699 -10.695
 c 85.699 -10.695 86.52 -10.727 86.758 -11.242 c 86.992 -11.77 87.449 -12.617
 87.398 -12.863 c 87.352 -13.117 87.203 -13.375 87.227 -13.512 c 87.25 -13.648
 87.172 -14.434 87.09 -14.648 c 87.082 -14.68 87.07 -14.703 87.062 -14.73
 c 86.996 -14.906 86.953 -15.055 86.973 -15.211 c 86.996 -15.398 87.176 
-16.02 87.07 -16.145 c 86.961 -16.273 86.77 -16.398 86.762 -16.516 c 86.754
 -16.629 86.754 -17.188 86.578 -17.328 c 86.398 -17.469 86.32 -17.68 86.316
 -17.781 c 86.309 -17.883 86.469 -18.598 86.23 -18.902 c 86.148 -19.012 
86.07 -19.09 86 -19.145 c 85.934 -19.152 85.824 -19.129 85.727 -19.211 c
 h
79.352 -22.723 m 79.352 -22.723 79.941 -21.355 79.996 -21.273 c 79.996 
-21.273 81.031 -19.723 79.996 -17.117 c 79.832 -16.711 79.211 -17.465 79.18
 -17.504 c 79.18 -17.504 79.18 -17.508 79.18 -17.508 c 76.477 -14.617 m 
76.477 -14.617 75.961 -13.695 76.812 -12.684 c 77.664 -11.68 77.938 -11.543
 78.297 -11.496 c 78.648 -11.453 79.277 -11.367 79.277 -11.367 c 79.277 
-11.367 80.453 -10.52 81.582 -11.25 c 81.582 -11.254 m 81.586 -11.254 81.586
 -11.254 81.59 -11.258 c 75.285 -16.516 m 75.285 -16.516 75.293 -15.539 
75.559 -15.305 c 75.754 -15.133 76.121 -14.848 76.496 -14.777 c 76.641 -14.75
 76.781 -14.758 76.918 -14.812 c 77.414 -15.012 78.801 -15.648 79.16 -16.461
 c 79.383 -16.969 79.316 -17.297 79.176 -17.5 c 79.09 -17.625 78.977 -17.707
 78.879 -17.758 c 78.617 -17.895 78.043 -17.996 78.043 -17.996 c 71.844 
-46.641 m 71.844 -46.641 71.578 -42.859 71.688 -42.316 c 77.094 -27.906 
m 77.16 -31.016 l 71.645 -26.812 m 71.645 -26.812 68.906 -28.383 69.449 
-32.781 c 78.617 -22.551 m 78.621 -22.664 78.785 -23.668 78.781 -23.742 
c 78.777 -23.816 79.078 -24.57 78.879 -24.738 c 78.652 -24.926 78.316 -25.074
 78.082 -25.191 c 76.32 -25.195 75.355 -24.82 75.355 -24.82 c 78.148 -25.219
 m 78.109 -26.074 78.527 -26.262 78.594 -26.383 c 78.66 -26.496 78.75 -26.672
 78.75 -26.672 c 78.75 -26.672 79.031 -26.711 79.312 -26.598 c 79.594 -26.488
 79.883 -26.199 79.883 -26.199 c 80.328 -25.863 79.973 -25.535 80.078 -25.188
 c 80.191 -24.844 79.867 -24.52 79.867 -24.52 c 79.867 -24.52 79.992 -24.527
 80 -24.402 c 80.008 -24.273 79.656 -24 79.609 -23.973 c 79.559 -23.945 
79.648 -23.777 79.555 -23.602 c 79.465 -23.438 79.379 -22.988 79.379 -22.988
 c 79.371 -22.934 79.293 -22.605 79.285 -22.562 c 79.176 -22.141 78.867 
-22.043 78.867 -22.043 c 78.859 -21.801 78.566 -21.613 78.566 -21.613 c 
78.637 -21.086 78.113 -21.148 78.051 -20.918 c 77.988 -20.688 77.52 -20.461
 77.52 -20.461 c 77.324 -20.148 76.762 -20.066 76.762 -20.066 c 76.574 -20.02
 75.738 -20.355 75.738 -20.355 c 75.738 -20.355 75.422 -20.262 75.035 -20.426
 c 75.035 -20.426 74.223 -20.238 73.82 -21.07 c 73.82 -21.07 73.398 -21.355
 73.215 -21.715 c 73.215 -21.715 72.598 -23.539 72.512 -24.176 c 72.422 
-24.855 72.469 -24.711 72.402 -24.887 c 72.293 -25.199 70.992 -26.34 71.645
 -26.812 c 72.297 -27.277 72.484 -27.352 72.602 -27.66 c 72.723 -27.973 
74.594 -28.203 74.996 -28.023 c 75.398 -27.84 75.625 -26.52 75.625 -26.52
 c 75.648 -26.215 75.668 -25.941 75.562 -25.531 c 75.52 -25.371 75.469 -25.211
 75.41 -25.078 c 75.195 -24.598 75.113 -24.078 75.129 -23.816 c 75.145 -23.551
 74.98 -23.137 74.805 -22.91 c 74.629 -22.684 74.367 -22.43 74.434 -21.969
 c 74.5 -21.504 74.879 -20.844 75.086 -20.77 c 75.293 -20.691 75.805 -20.344
 76.801 -20.582 c 76.801 -20.582 77.184 -20.918 77.254 -20.977 c 77.328 
-21.031 77.625 -21.219 77.828 -21.395 c 78.031 -21.574 78.109 -21.812 78.113
 -21.875 c 66.352 -42.078 m 66.352 -42.078 66.855 -42.723 67.914 -42.668
 c 69.207 -42.469 70.164 -41.723 70.551 -41.109 c 71.082 -40.109 71.477 
-38.746 69.922 -36.789 c 76.273 -36.715 m 76.273 -36.715 75.852 -36.59 75.859
 -36.453 c 75.582 -37.078 m 75.359 -36.898 l 72.84 -36.379 m 72.84 -36.379
 73.07 -36.855 73.324 -37.152 c 73.578 -37.449 74.445 -37.816 75 -37.648
 c 75.234 -37.578 75.297 -37.398 75.434 -37.371 c 75.566 -37.348 75.75 -37.156
 75.922 -37.133 c 76.086 -37.109 76.277 -36.715 76.277 -36.715 c 76.277 
-36.715 76.844 -36.852 76.863 -36.512 c 76.883 -36.18 76.902 -35.34 76.902
 -35.34 c 76.902 -35.34 77.355 -35.066 77.461 -34.434 c 70.188 -33.195 m
 70.188 -33.195 69.926 -32.094 70.375 -31.887 c 70.375 -31.887 70.402 -31.867
 70.438 -31.832 c 70.52 -31.758 70.672 -31.617 70.77 -31.508 c 70.914 -31.348
 71.242 -30.961 71.445 -30.941 c 71.645 -30.918 71.859 -30.73 72.004 -30.574
 c 72.148 -30.41 72.586 -29.832 73.254 -29.941 c 73.918 -30.047 75.395 -30.102
 75.59 -30.25 c 75.781 -30.395 76.688 -31.023 76.824 -31.027 c 76.871 -31.031
 77 -31.031 77.152 -31.055 c 77.41 -31.102 77.738 -31.227 77.863 -31.594
 c 77.863 -31.594 78.254 -31.887 77.918 -32.375 c 77.918 -32.375 78.637 
-32.785 78.75 -33.133 c 78.863 -33.473 78.957 -34.152 78.34 -34.352 c 78.34
 -34.352 77.594 -34.441 77.461 -34.434 c 77.461 -34.434 77.41 -34.125 77.242
 -34.082 c 77.078 -34.039 76.91 -34.031 76.734 -34.152 c 76.562 -34.277 
75.965 -34.645 75.797 -34.703 c 75.621 -34.758 75.316 -34.809 75.277 -34.906
 c 75.238 -35.008 75.117 -35.234 74.496 -35.566 c 74.492 -35.57 72.203 -36.086
 72.191 -36.09 c 70.602 -41.141 m 72.309 -40.918 72.641 -38.801 72.684 -38.129
 c 72.688 -38.035 72.527 -37.465 72.527 -37.465 c 72.527 -37.465 72.387 
-36.816 72.242 -36.25 c 72.156 -35.91 70.418 -33.473 70.418 -33.473 c 67.918
 -42.746 m 67.918 -42.746 68.629 -44.199 68.699 -44.711 c 68.742 -45.02 
69.141 -46.297 69.461 -47.305 c 69.672 -47.953 69.848 -48.492 69.883 -48.586
 c 69.953 -48.781 70.387 -49.293 70.227 -50.117 c 70.215 -50.172 70.203 
-50.227 70.188 -50.285 c 70.148 -50.418 70.098 -50.562 70.023 -50.711 c 
69.449 -51.895 69.301 -53.195 66.316 -53.086 c 65.586 -53.016 l 67.566 -32.227
 m 67.566 -32.227 69.371 -32.691 70.156 -33.238 c 70.168 -33.246 70.18 -33.254
 70.191 -33.266 c 70.285 -33.332 70.363 -33.402 70.418 -33.473 c 55.777 
-47.535 m 55.777 -47.535 55.492 -47.789 55.473 -48.121 c 55.453 -48.461 
55.449 -49.098 55.176 -49.688 c 54.906 -50.277 54.355 -51.625 54.402 -51.93
 c 54.453 -52.238 55.18 -53.496 55.188 -53.562 c 55.199 -53.629 55.402 -53.832
 55.438 -53.844 c 55.477 -53.855 55.785 -53.902 55.852 -53.891 c 55.914 
-53.883 56.141 -53.922 56.215 -53.902 c 56.293 -53.883 56.5 -53.828 56.504
 -53.73 c 56.512 -53.629 56.492 -53.488 56.57 -53.457 c 56.648 -53.426 57.027
 -52.965 56.891 -52.922 c 56.758 -52.875 56.52 -52.797 56.398 -52.75 c 56.273
 -52.707 56.109 -52.711 56.047 -52.555 c 55.977 -52.398 55.906 -52.305 55.969
 -52.148 c 56.027 -51.984 56.215 -51.836 56.332 -51.75 c 56.453 -51.668 
57.875 -50.668 58.098 -50.707 c 58.324 -50.75 58.871 -50.867 59.098 -51.082
 c 59.324 -51.301 61.27 -52.93 61.688 -53.121 c 62.109 -53.309 63.797 -54.336
 64.641 -54.418 c 65.48 -54.508 66.961 -54.824 67.598 -55 c 68.23 -55.176
 69.602 -55.438 70.199 -54.75 c 70.793 -54.066 71.062 -54.023 71.102 -53.594
 c 71.137 -53.168 71.352 -51.945 70.996 -51.34 c 70.641 -50.742 70.301 -50.316
 70.301 -50.316 c 55.051 -44.496 m 55.051 -44.496 54.617 -46.34 55.832 -47.469
 c 55.855 -47.496 55.883 -47.52 55.91 -47.543 c 57.223 -48.664 58.359 -49.945
 59.895 -50.676 c 61.434 -51.414 64.82 -52.754 65.184 -52.883 c 65.258 -52.906
 65.398 -52.961 65.578 -53.031 c 66.258 -53.305 67.469 -53.836 67.672 -54.035
 c 54.477 -42.848 m 54.477 -42.848 54.586 -43.867 54.961 -44.324 c 54.992
 -44.367 55.035 -44.41 55.086 -44.461 c 55.578 -44.953 56.809 -45.746 58.301
 -45.836 c 59.941 -45.934 61.672 -46.172 62.641 -45.262 c 62.641 -45.262
 62.645 -45.258 62.645 -45.258 c 59.148 -37.305 m 59.148 -37.305 59.293 
-37.461 59.52 -37.703 c 60.262 -38.484 61.918 -40.191 62.684 -40.648 c 62.641
 -45.262 m 62.73 -46.359 62.91 -47.301 63.34 -47.652 c 63.34 -47.652 63.859
 -48.09 63.918 -48.141 c 63.98 -48.199 64.441 -48.488 64.484 -48.594 c 64.527
 -48.695 64.66 -49.043 64.594 -49.113 c 64.523 -49.188 64.25 -49.336 64.223
 -49.387 c 64.195 -49.434 64.102 -49.707 64.285 -49.805 c 64.285 -49.805
 64.367 -49.871 64.465 -49.75 c 64.562 -49.633 64.703 -49.586 64.793 -49.57
 c 64.883 -49.551 65.348 -49.352 65.359 -49.148 c 65.371 -48.957 65.379 
-48.801 65.383 -48.785 c 65.383 -48.785 m 66.152 -50.398 l 66.152 -50.398
 66.387 -50.512 66.453 -50.449 c 66.52 -50.391 66.613 -50.324 66.57 -50.207
 c 66.527 -50.09 66.391 -49.617 66.391 -49.617 c 66.191 -48.934 l 66.027
 -48.523 l 65.871 -48.055 l 65.871 -48.055 m 66.641 -49.074 l 67.039 -49.754
 l 67.039 -49.754 67.238 -49.984 67.371 -49.926 c 67.5 -49.871 67.652 -49.805
 67.547 -49.531 c 67.434 -49.262 67.203 -48.719 67.203 -48.719 c 67.203 
-48.719 66.863 -48.055 66.551 -47.809 c 67.254 -48.078 l 68.215 -48.691 
l 68.215 -48.691 68.367 -48.672 68.422 -48.602 c 68.477 -48.527 68.406 -48.398
 68.336 -48.316 c 68.266 -48.238 67.547 -47.352 67.547 -47.352 c 67.547 
-47.352 67.234 -47.117 67.074 -47.047 c 67.074 -47.047 66.918 -46.922 66.887
 -46.828 c 66.855 -46.742 66.457 -46.375 66.387 -46.309 c 66.316 -46.242
 65.695 -45.852 65.484 -45.801 c 65.273 -45.75 64.707 -45.68 64.754 -45.352
 c 64.801 -45.027 65.477 -43.43 65.477 -43.43 c 65.965 -42.434 l 65.965 
-42.434 66.047 -42.273 66.16 -42.043 c 66.391 -41.574 66.746 -40.805 66.766
 -40.488 c 66.766 -40.488 67.953 -40.324 67.988 -39.754 c 68.02 -39.184 
68.441 -38.336 65.02 -37.086 c 65.02 -37.086 64.004 -37.766 63.5 -38.809
 c 63.25 -39.336 62.992 -39.961 62.805 -40.68 c 62.621 -41.387 62.508 -42.191
 62.539 -43.094 c 62.559 -43.805 62.578 -44.562 62.641 -45.262 c 56.672 
-40.422 m 56.672 -40.422 55.574 -39.684 55.406 -39.676 c 55.328 -39.668 
55.035 -39.621 54.715 -39.578 c 54.371 -39.527 53.996 -39.488 53.801 -39.512
 c 53.43 -39.555 52.242 -40.223 52.168 -40.926 c 52.094 -41.629 51.543 -43.516
 53.293 -43.48 c 53.293 -43.48 53.961 -43.113 54.273 -42.824 c 54.32 -42.785
 54.355 -42.746 54.383 -42.711 c 54.605 -42.418 55.891 -41.684 56.129 -41.699
 c 56.266 -41.711 56.84 -41.695 57.332 -41.742 c 57.672 -41.777 57.973 -41.836
 58.062 -41.953 c 58.281 -42.234 58.426 -43.188 58.555 -43.293 c 58.684 
-43.402 59.707 -44.238 59.707 -44.238 c 59.496 -37.73 m 59.496 -37.73 58.863
 -38.035 58.301 -38.402 c 58.02 -38.586 57.762 -38.781 57.605 -38.965 c 
57.191 -39.438 56.855 -39.969 56.758 -40.434 c 56.742 -40.5 56.734 -40.566
 56.73 -40.629 c 56.699 -41.129 57.145 -41.559 57.336 -41.707 c 63.016 -34.035
 m 61.426 -34.715 l 61.426 -34.715 59.785 -35.121 59.379 -35.168 c 58.973
 -35.211 57.402 -35.555 57.449 -36.465 c 57.496 -37.375 57.34 -37.699 57.664
 -37.957 c 57.984 -38.211 58.277 -38.363 58.277 -38.363 c 68.176 -21.273
 m 68.176 -21.273 69.172 -21.98 69.266 -22.328 c 64.668 -22.609 m 64.668
 -22.609 64.488 -23.273 64.684 -23.586 c 64.684 -23.586 65.199 -25.023 66.746
 -25.141 c 66.895 -25.152 68.32 -25.207 68.32 -25.207 c 71.074 -18.148 m
 71.398 -18.504 l 65.148 -14.422 m 65.004 -14.039 65.398 -13.684 65.574 
-13.582 c 65.602 -13.566 65.859 -13.512 65.859 -13.512 c 65.855 -13.484 
65.855 -13.469 65.852 -13.449 c 65.816 -12.902 67.492 -12.633 67.492 -12.633
 c 67.543 -11.559 70.105 -12.016 70.105 -12.016 c 71.312 -11.82 72.535 -12.734
 72.535 -12.734 c 73.484 -12.551 73.992 -13.695 73.992 -13.695 c 74.898 
-13.969 74.504 -15.273 74.48 -15.391 c 74.457 -15.504 74.457 -15.723 73.984
 -15.797 c 73.828 -15.82 73.652 -15.77 73.469 -15.688 c 73.094 -15.52 73.039
 -15.602 72.492 -15.254 c 71.809 -14.742 l 71.809 -14.742 71.859 -15.281
 71.629 -15.508 c 71.395 -15.727 71.312 -15.723 71.16 -15.715 c 71.012 -15.707
 70.672 -16.035 70.461 -16.16 c 70.25 -16.281 69.914 -16.645 69.387 -16.668
 c 69.387 -16.668 68.398 -16.879 68.121 -16.723 c 67.844 -16.574 67.215 
-16.859 67.129 -16.617 c 67.074 -16.461 66.906 -16.23 66.609 -16.043 c 66.262
 -19.023 m 68.703 -18.391 l 68.844 -18.465 l 69.805 -18.988 l 69.805 -18.988
 70.438 -19.328 70.668 -19.293 c 70.898 -19.258 70.906 -19.129 70.91 -19.027
 c 70.918 -18.93 71.078 -18.762 71.156 -18.742 c 71.234 -18.723 71.398 -18.504
 71.398 -18.504 c 71.398 -18.504 71.699 -18.496 71.805 -18.43 c 71.906 -18.363
 72.059 -18.184 72.074 -18.164 c 72.074 -18.164 m 72.074 -18.164 72.453 
-18.59 72.562 -18.043 c 72.672 -17.496 73.168 -16.336 73.258 -16.09 c 73.352
 -15.844 73.445 -15.742 73.445 -15.742 c 68.824 -18.5 m 68.824 -18.5 68.938
 -19.402 68.434 -20.008 c 68.355 -20.109 68.254 -20.199 68.137 -20.277 c
 67.297 -20.836 l 63.316 -23.242 m 64.598 -22.602 l 65.605 -22.094 l 65.605
 -22.094 67.105 -21.57 67.93 -21.207 c 68.227 -21.074 68.438 -20.961 68.453
 -20.902 c 68.516 -20.68 68.504 -20.047 68.504 -20.047 c 60.238 -20.258 
m 59.414 -20.562 58.555 -19.703 57.758 -18.695 c 56.961 -17.688 57.57 -16.812
 58.703 -15.57 c 59.711 -14.469 62.773 -14.156 63.453 -14.105 c 59.824 -23.816
 m 58.336 -23.324 l 58.09 -23.258 56.66 -22.668 56.359 -22.648 c 56.059 
-22.633 55.32 -22.34 54.98 -22.117 c 54.641 -21.891 53.945 -20.84 53.961
 -20.586 c 53.973 -20.383 54.074 -19.238 54.223 -18.395 c 54.254 -18.203
 54.289 -18.027 54.324 -17.883 c 54.523 -17.09 55.195 -16.828 55.668 -16.551
 c 56.137 -16.273 56.652 -15.246 57.176 -14.926 c 57.703 -14.602 59.078 
-14.336 60.152 -14.094 c 61.227 -13.855 63.285 -14.082 63.285 -14.082 c 
63.285 -14.082 63.348 -14.078 63.453 -14.078 c 63.762 -14.086 64.438 -14.148
 65.117 -14.488 c 65.301 -14.578 65.484 -14.688 65.66 -14.824 c 66.043 -15.121
 66.316 -15.469 66.496 -15.836 c 66.816 -16.496 66.84 -17.23 66.641 -17.867
 c 66.516 -18.266 66.316 -18.641 66.098 -18.953 c 65.781 -19.41 65.426 -19.742
 65.207 -19.848 c 64.844 -20.027 64.488 -20.109 64.305 -20.652 c 64.121 
-21.195 63.844 -22.441 63.258 -22.961 c 63.258 -22.961 63.164 -22.988 63.227
 -23.242 c 63.242 -23.312 63.273 -23.406 63.324 -23.523 c 63.547 -24.039
 64.266 -25.445 64.254 -26.508 c 64.242 -27.566 64.434 -28.586 64.688 -29.406
 c 64.941 -30.23 65.438 -31.219 65.637 -31.234 c 65.84 -31.246 66.234 -31.367
 66.379 -31.531 c 66.52 -31.691 67.062 -31.926 67.207 -31.984 c 67.297 -32.02
 67.512 -32.117 67.555 -32.227 c 67.582 -32.301 67.539 -32.379 67.332 -32.445
 c 66.816 -32.617 66.371 -32.488 66.371 -32.488 c 66.371 -32.488 66.102 
-32.336 66.012 -32.34 c 65.926 -32.348 65.805 -32.469 65.727 -32.512 c 65.652
 -32.555 65.352 -32.637 65.238 -32.785 c 65.23 -32.797 65.219 -32.809 65.215
 -32.824 c 65.242 -32.777 m 65.242 -32.777 65.242 -32.777 65.238 -32.785
 c 65.238 -32.785 m 65.215 -32.848 65.09 -33.18 65.059 -33.293 c 65.027 
-33.418 64.953 -33.844 64.941 -34.016 c 64.93 -34.195 64.941 -34.426 64.812
 -34.492 c 64.812 -34.492 64.492 -34.723 64.316 -34.738 c 64.141 -34.75 
63.836 -34.785 63.668 -34.648 c 63.5 -34.512 63.309 -34.273 63.141 -34.141
 c 63.109 -34.109 63.07 -34.07 63.031 -34.023 c 62.891 -33.836 62.762 -33.52
 62.828 -33.082 c 62.91 -32.531 63.238 -32.102 63.246 -31.973 c 63.254 -31.848
 62.645 -30.242 62.645 -30.242 c 62.645 -30.242 61.707 -28.98 61.551 -28.664
 c 61.434 -28.434 60.902 -27.852 60.547 -26.5 c 60.426 -26.039 60.324 -25.488
 60.266 -24.828 c 60.266 -24.828 60.137 -24.445 60.168 -23.738 c 60.172 
-23.586 60.188 -23.418 60.211 -23.234 c 60.348 -22.207 60.305 -20.867 60.32
 -20.617 c 60.324 -20.555 60.336 -20.434 60.355 -20.27 c 60.418 -19.77 60.559
 -18.895 60.785 -18.297 c 61.086 -17.508 62.234 -15.582 62.234 -15.582 c
 60.078 -23.734 m 60.078 -23.734 60.004 -23.789 59.875 -23.883 c 59.539 
-24.125 58.832 -24.629 58.078 -25.125 c 57.027 -25.82 56.125 -24.859 55.594
 -24.473 c 55.062 -24.09 53.93 -24.473 52.91 -24.617 c 52.316 -24.695 51.801
 -24.336 51.426 -23.98 c 51.16 -23.723 50.965 -23.473 50.863 -23.383 c 50.625
 -23.168 50.43 -22.195 50.695 -21.957 c 50.965 -21.719 51.727 -20.809 51.727
 -20.809 c 52.914 -18.66 54.141 -18.379 54.141 -18.379 c 51.434 -23.973 
m 51.434 -23.973 51.43 -23.973 51.426 -23.98 c 51.344 -24.051 50.742 -24.621
 51.676 -26.047 c 55.363 -26.789 m 55.363 -26.789 54.332 -27.855 54.332 
-29.547 c 54.332 -31.234 54.812 -33.738 54.801 -34.32 c 54.797 -34.676 54.652
 -35.555 54.465 -36.414 c 54.352 -36.945 54.062 -38.137 54.578 -39.418 c
 53.297 -26.555 m 53.297 -26.555 51.777 -27.602 51.801 -30.129 c 51.828 
-32.48 52.172 -35.711 51.199 -37.461 c 51.125 -37.59 51.047 -37.715 50.961
 -37.836 c 50.961 -37.836 50.211 -38.719 50.84 -38.758 c 51.469 -38.797 
51.84 -38.746 52.148 -39.094 c 52.277 -39.238 52.422 -39.383 52.57 -39.457
 c 52.57 -39.457 53.207 -39.605 53.906 -39.5 c S Q
0.2975 w
q 1 0 0 -1 0 0 cm
90.461 -44.484 m 90.461 -44.484 88.922 -45.715 91.215 -46.398 c S Q
0.32875 w
q 1 0 0 -1 0 0 cm
102.82 -30.301 m 102.82 -30.301 103.227 -32.422 102.82 -34.75 c 102.41 
-37.082 103.277 -44.02 103.094 -45.402 c S Q
q 1 0 0 -1 0 0 cm
97.891 -24.234 m 99.207 -22.918 l S Q
q 1 0 0 -1 0 0 cm
92.289 -33.258 m 92.289 -33.258 92.227 -34.289 92.402 -35.773 c 96.125 
-43.203 m 97.898 -45.203 99.852 -47.23 99.852 -47.23 c 90.188 -29.914 m 
93.18 -29.766 l 93.18 -29.766 93.828 -29.684 94.25 -29.426 c 89.738 -28.66
 m 89.738 -28.66 89.562 -29.754 89.305 -30.43 c 78.074 -22.93 m 78.562 -22.684
 78.637 -22.371 78.637 -22.371 c 78.637 -22.371 77.922 -21.863 77.504 -21.684
 c 77.082 -21.512 77.508 -21.18 77.508 -21.18 c 89.762 -24.285 m 89.762 
-24.285 91.922 -23.852 92.016 -26.172 c 65.02 -37.082 m 65.02 -37.082 65.703
 -36.25 67.273 -36.25 c 67.273 -36.25 67.949 -36.219 68.488 -36.219 c 72.289
 -39.805 m 72.121 -40.434 72.117 -41.168 71.621 -42.477 c 71.621 -42.477
 71.363 -43.164 71.07 -43.77 c 70.855 -44.512 69.109 -46.027 69.109 -46.027
 c 75.348 -27.773 m 75.348 -27.773 78.043 -28.379 78.633 -26.453 c 61.125
 -28.098 m 61.125 -28.098 60.98 -29.332 61.344 -31.074 c 61.703 -32.816 
62.211 -34.414 62.211 -34.414 c 69.266 -34.719 m 69.266 -34.719 72.043 -35.809
 72.461 -37.129 c 79.379 -33.422 m 79.379 -33.422 80.566 -29.766 81.305 
-29.469 c S Q
q 1 0 0 -1 0 0 cm
72.809 -36.746 m 72.492 -37.012 l S Q
26.102 113.898 m 26.066 114.133 26.184 114.281 26.418 114.281 c 27.512 
114.281 l 27.645 114.281 27.797 114.164 27.816 114.047 c 29.023 106.539 
l 29.09 106.539 l 32.129 114.266 l 32.164 114.367 32.281 114.449 32.414 
114.449 c 32.719 114.449 l 32.871 114.449 32.973 114.367 33.004 114.266 
c 36.027 106.539 l 36.078 106.539 l 37.32 114.047 l 37.355 114.164 37.488
 114.281 37.641 114.281 c 38.73 114.281 l 38.969 114.281 39.086 114.133 
39.035 113.898 c 36.969 102.609 l 36.934 102.477 36.801 102.359 36.664 102.359
 c 36.398 102.359 l 36.281 102.359 36.145 102.441 36.113 102.543 c 32.617
 111.125 l 32.551 111.125 l 29.039 102.543 l 29.008 102.441 28.855 102.359
 28.754 102.359 c 28.484 102.359 l 28.352 102.359 28.219 102.477 28.184 
102.609 c h
41.504 113.965 m 41.504 114.133 41.656 114.281 41.82 114.281 c 42.93 114.281
 l 43.098 114.281 43.25 114.133 43.25 113.965 c 43.25 102.844 l 43.25 102.676
 43.098 102.527 42.93 102.527 c 41.82 102.527 l 41.656 102.527 41.504 102.676
 41.504 102.844 c h
46.508 113.965 m 46.508 114.133 46.641 114.281 46.828 114.281 c 52.809 
114.281 l 52.992 114.281 53.125 114.133 53.125 113.965 c 53.125 113.039 
l 53.125 112.871 52.992 112.719 52.809 112.719 c 48.254 112.719 l 48.254
 102.844 l 48.254 102.676 48.102 102.527 47.938 102.527 c 46.828 102.527
 l 46.641 102.527 46.508 102.676 46.508 102.844 c h
54.438 114.281 m 55.496 114.281 l 55.695 114.281 55.828 114.148 55.879 
114.031 c 56.219 113.258 56.57 112.504 56.906 111.73 c 62.398 111.73 l 63.441
 114.031 l 63.504 114.184 63.625 114.281 63.824 114.281 c 64.883 114.281
 l 65.137 114.281 65.27 114.062 65.168 113.848 c 60.047 102.543 l 59.996
 102.441 59.844 102.359 59.762 102.359 c 59.594 102.359 l 59.508 102.359
 59.355 102.441 59.309 102.543 c 54.152 113.848 l 54.051 114.062 54.184 
114.281 54.438 114.281 c 57.559 110.285 m 59.609 105.684 l 59.691 105.684
 l 61.758 110.285 l h
66.848 113.965 m 66.848 114.133 67 114.281 67.168 114.281 c 68.227 114.281
 l 68.41 114.281 68.543 114.133 68.543 113.965 c 68.543 105.785 l 68.562
 105.785 l 75.852 114.449 l 76.289 114.449 l 76.457 114.449 76.605 114.316
 76.605 114.148 c 76.605 102.844 l 76.605 102.676 76.457 102.527 76.289 
102.527 c 75.215 102.527 l 75.027 102.527 74.895 102.676 74.895 102.844 
c 74.895 110.789 l 74.879 110.789 l 67.586 102.359 l 67.168 102.359 l 67
 102.359 66.848 102.492 66.848 102.66 c h
79.008 108.422 m 79.008 111.781 81.68 114.449 85.039 114.449 c 88.398 114.449
 91.086 111.781 91.086 108.422 c 91.086 105.062 88.398 102.359 85.039 102.359
 c 81.68 102.359 79.008 105.062 79.008 108.422 c 80.688 108.422 m 80.688
 106.035 82.652 104.035 85.039 104.035 c 87.441 104.035 89.406 106.035 89.406
 108.422 c 89.406 110.824 87.441 112.773 85.039 112.773 c 82.652 112.773
 80.688 110.824 80.688 108.422 c 95.992 114.281 m 101.836 114.281 l 102.023
 114.281 102.156 114.148 102.156 113.98 c 102.156 113.258 l 102.156 113.074
 102.023 112.938 101.836 112.938 c 99.988 112.938 l 99.988 103.18 l 99.988
 103.012 99.855 102.863 99.688 102.863 c 98.863 102.863 l 96.363 105.129
 l 96.293 105.195 96.262 105.332 96.312 105.465 c 96.512 106.055 l 96.562
 106.203 96.73 106.238 96.883 106.172 c 98.344 105.434 l 98.344 112.938 
l 95.992 112.938 l 95.809 112.938 95.672 113.074 95.672 113.258 c 95.672
 113.98 l 95.672 114.148 95.809 114.281 95.992 114.281 c 104.055 111.227
 m 104.055 113.059 105.551 114.449 107.902 114.449 c 110.336 114.449 111.816
 113.059 111.816 111.227 c 111.816 109.781 110.555 108.773 109.781 108.422
 c 109.781 108.355 l 110.504 107.984 111.512 107.062 111.512 105.766 c 111.512
 103.918 109.984 102.691 107.918 102.691 c 105.902 102.691 104.355 103.918
 104.355 105.766 c 104.355 107.078 105.363 108 106.086 108.371 c 106.086
 108.422 l 105.465 108.707 104.055 109.766 104.055 111.227 c 107.934 107.633
 m 106.625 107.43 106.055 106.742 106.055 105.836 c 106.055 104.809 106.875
 104.07 107.883 104.07 c 108.992 104.07 109.816 104.809 109.816 105.836 
c 109.816 106.723 109.227 107.445 107.934 107.633 c 105.801 111.258 m 105.801
 110.371 106.574 109.445 107.934 109.246 c 109.293 109.445 110.066 110.371
 110.066 111.258 c 110.066 112.387 109.109 113.09 107.918 113.09 c 106.809
 113.09 105.801 112.367 105.801 111.258 c 113.543 109.75 m 113.543 112.336
 114.82 114.449 117.508 114.449 c 119.539 114.449 121.254 112.719 121.254
 110.605 c 121.254 108.285 119.523 106.961 117.742 106.961 c 116.617 106.961
 115.645 107.496 115.508 107.582 c 116.062 105.516 118.734 104.121 119.508
 103.871 c 119.824 103.77 119.895 103.586 119.809 103.383 c 119.523 102.691
 l 119.457 102.508 119.305 102.426 119.102 102.492 c 117.559 103.078 113.543
 105.062 113.543 109.75 c 117.492 112.938 m 115.66 112.938 115.039 111.023
 115.172 109.613 c 115.273 109.312 116.148 108.336 117.473 108.336 c 118.719
 108.336 119.707 109.363 119.707 110.621 c 119.707 111.883 118.734 112.938
 117.492 112.938 c 122.531 112.957 m 122.898 113.395 123.891 114.449 125.973
 114.449 c 128.289 114.449 129.77 113.074 129.77 111.242 c 129.77 109.797
 128.527 108.789 127.738 108.453 c 127.738 108.406 l 128.492 108.051 129.469
 107.062 129.469 105.766 c 129.469 103.887 127.906 102.691 125.957 102.691
 c 124.125 102.691 122.848 104.172 122.848 104.172 c 122.73 104.289 122.715
 104.492 122.848 104.609 c 123.473 105.164 l 123.621 105.297 123.809 105.262
 123.906 105.129 c 124.242 104.758 124.848 104.188 125.855 104.188 c 126.848
 104.188 127.77 104.895 127.77 106.02 c 127.77 107.012 126.98 107.816 125.402
 107.816 c 124.461 107.816 l 124.227 107.816 124.125 107.918 124.125 108.168
 c 124.125 108.891 l 124.125 109.125 124.262 109.246 124.445 109.246 c 125.387
 109.246 l 127.184 109.246 128.039 110.203 128.039 111.211 c 128.039 112.336
 127.031 113.023 125.941 113.023 c 124.695 113.023 123.754 112.117 123.656
 111.98 c 123.52 111.832 123.371 111.812 123.203 111.949 c 122.547 112.555
 l 122.43 112.656 122.43 112.84 122.531 112.957 c f
0 94.098 m 0 94.336 0.191 94.551 0.457 94.551 c 2.664 94.551 l 2.902 94.551
 3.117 94.336 3.117 94.098 c 3.117 88.457 l 6.117 88.457 l 9.047 88.457 
11.469 86.035 11.469 83.059 c 11.469 80.156 9.047 77.758 6.094 77.758 c 
0.457 77.758 l 0.191 77.758 0 77.973 0 78.211 c h
3.117 85.531 m 3.117 80.707 l 5.902 80.707 l 7.246 80.707 8.375 81.715 
8.375 83.035 c 8.375 84.449 7.246 85.531 5.902 85.531 c h
13.293 86.176 m 13.293 90.977 17.109 94.793 21.906 94.793 c 26.707 94.793
 30.547 90.977 30.547 86.176 c 30.547 81.379 26.707 77.516 21.906 77.516
 c 17.109 77.516 13.293 81.379 13.293 86.176 c 16.414 86.176 m 16.414 83.156
 18.883 80.637 21.906 80.637 c 24.93 80.637 27.426 83.156 27.426 86.176 
c 27.426 89.203 24.93 91.672 21.906 91.672 c 18.883 91.672 16.414 89.203
 16.414 86.176 c 33.066 94.098 m 33.066 94.336 33.258 94.551 33.52 94.551
 c 42.301 94.551 l 42.566 94.551 42.758 94.336 42.758 94.098 c 42.758 92.129
 l 42.758 91.891 42.566 91.672 42.301 91.672 c 36.184 91.672 l 36.184 78.211
 l 36.184 77.973 35.969 77.758 35.73 77.758 c 33.52 77.758 l 33.258 77.758
 33.066 77.973 33.066 78.211 c h
45.902 94.098 m 45.902 94.336 46.117 94.551 46.359 94.551 c 48.59 94.551
 l 48.828 94.551 49.047 94.336 49.047 94.098 c 49.047 78.211 l 49.047 77.973
 48.828 77.758 48.59 77.758 c 46.359 77.758 l 46.117 77.758 45.902 77.973
 45.902 78.211 c h
56.195 94.098 m 56.195 94.336 56.41 94.551 56.652 94.551 c 58.883 94.551
 l 59.121 94.551 59.34 94.336 59.34 94.098 c 59.34 80.637 l 63.012 80.637
 l 63.273 80.637 63.465 80.418 63.465 80.18 c 63.465 78.211 l 63.465 77.973
 63.273 77.758 63.012 77.758 c 52.523 77.758 l 52.262 77.758 52.07 77.973
 52.07 78.211 c 52.07 80.18 l 52.07 80.418 52.262 80.637 52.523 80.637 c
 56.195 80.637 l h
66.203 94.098 m 66.203 94.336 66.391 94.551 66.656 94.551 c 76.422 94.551
 l 76.688 94.551 76.879 94.336 76.879 94.098 c 76.879 92.129 l 76.879 91.891
 76.688 91.672 76.422 91.672 c 69.32 91.672 l 69.32 87.473 l 75.246 87.473
 l 75.488 87.473 75.703 87.281 75.703 87.016 c 75.703 85.027 l 75.703 84.785
 75.488 84.57 75.246 84.57 c 69.32 84.57 l 69.32 80.637 l 76.422 80.637 
l 76.688 80.637 76.879 80.418 76.879 80.18 c 76.879 78.211 l 76.879 77.973
 76.688 77.758 76.422 77.758 c 66.656 77.758 l 66.391 77.758 66.203 77.973
 66.203 78.211 c h
79.328 86.176 m 79.328 90.977 83.191 94.793 87.988 94.793 c 90.125 94.793
 92.188 94.047 93.82 92.465 c 93.988 92.297 94.035 91.984 93.844 91.816 
c 92.355 90.281 l 92.211 90.137 91.949 90.113 91.758 90.281 c 90.746 91.098
 89.523 91.648 88.086 91.648 c 85.016 91.648 82.711 89.105 82.711 86.105
 c 82.711 83.082 84.988 80.516 88.059 80.516 c 89.402 80.516 90.746 81.043
 91.758 81.93 c 91.949 82.121 92.188 82.121 92.355 81.93 c 93.82 80.418 
l 94.012 80.227 94.012 79.938 93.797 79.746 c 92.164 78.285 90.414 77.516
 87.988 77.516 c 83.191 77.516 79.328 81.379 79.328 86.176 c 97.012 94.098
 m 97.012 94.336 97.227 94.551 97.465 94.551 c 99.648 94.551 l 99.914 94.551
 100.105 94.336 100.105 94.098 c 100.105 83.777 l 100.129 83.777 l 110.16
 94.793 l 110.734 94.793 l 110.977 94.793 111.191 94.602 111.191 94.359 
c 111.191 78.211 l 111.191 77.973 110.977 77.758 110.734 77.758 c 108.527
 77.758 l 108.266 77.758 108.074 77.973 108.074 78.211 c 108.074 88.121 
l 108.047 88.121 l 98.066 77.516 l 97.465 77.516 l 97.227 77.516 97.012 
77.707 97.012 77.949 c h
115.32 94.098 m 115.32 94.336 115.535 94.551 115.773 94.551 c 118.008 94.551
 l 118.246 94.551 118.461 94.336 118.461 94.098 c 118.461 78.211 l 118.461
 77.973 118.246 77.758 118.008 77.758 c 115.773 77.758 l 115.535 77.758 
115.32 77.973 115.32 78.211 c h
121.605 86.176 m 121.605 90.977 125.469 94.793 130.266 94.793 c 132.402
 94.793 134.465 94.047 136.098 92.465 c 136.266 92.297 136.312 91.984 136.121
 91.816 c 134.633 90.281 l 134.488 90.137 134.227 90.113 134.035 90.281 
c 133.027 91.098 131.801 91.648 130.363 91.648 c 127.293 91.648 124.988 
89.105 124.988 86.105 c 124.988 83.082 127.266 80.516 130.34 80.516 c 131.684
 80.516 133.027 81.043 134.035 81.93 c 134.227 82.121 134.465 82.121 134.633
 81.93 c 136.098 80.418 l 136.289 80.227 136.289 79.938 136.074 79.746 c
 134.441 78.285 132.691 77.516 130.266 77.516 c 125.469 77.516 121.605 81.379
 121.605 86.176 c 138.328 86.176 m 138.328 90.977 142.145 94.793 146.945
 94.793 c 151.742 94.793 155.582 90.977 155.582 86.176 c 155.582 81.379 
151.742 77.516 146.945 77.516 c 142.145 77.516 138.328 81.379 138.328 86.176
 c 141.449 86.176 m 141.449 83.156 143.922 80.637 146.945 80.637 c 149.965
 80.637 152.461 83.156 152.461 86.176 c 152.461 89.203 149.965 91.672 146.945
 91.672 c 143.922 91.672 141.449 89.203 141.449 86.176 c f
Q Q
showpage
%%Trailer
%%EOF
